tricomm_project
…
census_summarized <- census_summarized |>
  select(County, -TotalAgeMale, -TotalAgeFemale, -TotalWorkMale, -TotalWorkFemale, -TotalPovertyMale, -TotalPovertyFemale, -TotalInsuredMale, -TotalUninsuredMale, -TotalInsuredFemale, -TotalUninsuredFemale, Population, EmployedPercent, PovertyPercent, InsuredPercent)

county_drug <- read_csv("~/tricomm/TriCoMM-Country-Prescriptions.csv", show_col_types = FALSE) 

census_summarized <- left_join(census_summarized, county_drug, by = "County")
census_summarized <- mutate(census_summarized, Prescriptions_Per_Population = Prescriptions / Population)

census_summarized

# A tibble: 100 × 9
   County Population EmployedPercent PovertyPercent InsuredPercent Prescriptions
   <chr>       <dbl>           <dbl>          <dbl>          <dbl>         <dbl>
 1 Alama…     169185           0.827          0.140          0.890        226779
 2 Alexa…      36491           0.820          0.111          0.874         75903
 3 Alleg…      10910           0.8            0.213          0.866         19712
 4 Anson       22388           0.830          0.171          0.831         31384
 5 Ashe        26598           0.806          0.138          0.878         51945
 6 Avery       17747           0.835          0.110          0.731         30059
 7 Beauf…      44898           0.802          0.185          0.871        101202
 8 Bertie      18105           0.831          0.223          0.820         28595
 9 Bladen      30105           0.806          0.242          0.884         55845
10 Bruns…     133789           0.778          0.101          0.904        254585
# ℹ 90 more rows
# ℹ 3 more variables: Patients <dbl>, GEOID <dbl>,
#   Prescriptions_Per_Population <dbl>
…
